Running on device: cpu
tensor([[ 0.0446, -0.0048,  0.0440,  0.0317,  0.0415, -0.0121, -0.0165, -0.0112,
         -0.0145, -0.0414, -0.0882, -0.0074, -0.0864, -0.0183,  0.0820, -0.0564,
          0.0080, -0.0289,  0.0374,  0.0125,  0.0023,  0.0100, -0.0398,  0.0321,
          0.0297,  0.0014,  0.1093,  0.0189,  0.0237, -0.0664,  0.0107,  0.0429,
          0.0220,  0.0070,  0.0179, -0.0002, -0.0732,  0.0410, -0.0307,  0.0210,
          0.0077,  0.0065,  0.0059, -0.1033,  0.0079, -0.0522,  0.0390, -0.0062,
         -0.0294,  0.0126,  0.1046,  0.0949,  0.0677,  0.0620,  0.0100, -0.0214,
          0.0441,  0.0841,  0.0214,  0.0330, -0.0277, -0.0798,  0.0816, -0.0493,
          0.0328,  0.0610,  0.0127, -0.0095,  0.0029, -0.0458,  0.0361, -0.0460,
         -0.0128, -0.0047, -0.0151,  0.0766,  0.0710, -0.0275, -0.0307,  0.0908,
          0.0312,  0.0648,  0.0077, -0.0142,  0.0223, -0.0239,  0.0149, -0.0107,
          0.0276,  0.1006, -0.0224,  0.0581,  0.0438, -0.0444, -0.0482, -0.0134,
         -0.0874,  0.0414, -0.0363, -0.0803,  0.0157, -0.0513, -0.0075, -0.0756,
          0.0719,  0.0812,  0.0828,  0.0311,  0.0205, -0.0219, -0.0305, -0.0540,
         -0.0559,  0.0171,  0.0216,  0.0555,  0.0003, -0.0541, -0.0097,  0.0113,
         -0.1030,  0.0051,  0.0455,  0.0100, -0.0099, -0.0322,  0.0102, -0.1078,
         -0.0169,  0.0233, -0.0008,  0.0387,  0.0502, -0.0842, -0.0600,  0.0176,
          0.0180,  0.0160, -0.0231, -0.1144,  0.0854, -0.0219, -0.0126,  0.0258,
         -0.0106,  0.0107, -0.0065, -0.0138, -0.0068, -0.0062, -0.0237,  0.0494,
         -0.0694,  0.0299, -0.0598,  0.0108,  0.0529,  0.0050,  0.0300,  0.0146,
          0.0517, -0.0113,  0.0433, -0.0476, -0.0023, -0.0086, -0.0751,  0.0274,
          0.0206,  0.0118, -0.0197, -0.0461, -0.0252, -0.1118, -0.0235, -0.0383,
         -0.0245, -0.1204, -0.0340, -0.0165, -0.0556,  0.0556, -0.0376, -0.0522,
         -0.0149, -0.0241, -0.0564, -0.0149, -0.0221,  0.0938, -0.0327,  0.0389,
          0.0100,  0.0492, -0.0180,  0.0214,  0.0517, -0.0639, -0.0134, -0.0446,
          0.0015, -0.0286, -0.0062,  0.0852, -0.0187, -0.0920,  0.0059,  0.0129,
         -0.0819,  0.1053, -0.0155, -0.0096, -0.0781, -0.0115, -0.0577, -0.0139,
          0.0110,  0.0664, -0.0274,  0.0400, -0.0441, -0.0106, -0.0012,  0.0106,
         -0.0185, -0.0039,  0.0078,  0.0330, -0.0190,  0.0111,  0.0711, -0.0697,
          0.0599, -0.0178,  0.0214, -0.0332, -0.0304,  0.0074, -0.0252, -0.0471,
         -0.0067, -0.0947,  0.0011,  0.0064,  0.0583,  0.0264, -0.0523, -0.0937,
         -0.0029, -0.0549,  0.0445,  0.0447,  0.0055,  0.0195, -0.0134,  0.0077,
         -0.0100,  0.0504, -0.0043,  0.0091,  0.0422,  0.0099,  0.0324, -0.0359,
          0.0009,  0.0334,  0.0080,  0.0430, -0.0021,  0.1236, -0.0584,  0.0119,
         -0.0684, -0.0790,  0.0067, -0.0138, -0.0731, -0.0049, -0.0263,  0.0759,
         -0.0415, -0.0040, -0.0393, -0.0200, -0.0540,  0.0224,  0.0083,  0.0060,
         -0.0014, -0.0579,  0.0226,  0.0350,  0.0810, -0.1216, -0.0100,  0.0324,
          0.0636,  0.0362,  0.0112,  0.0110,  0.0201, -0.0497, -0.0290, -0.0161,
          0.0019, -0.0864, -0.0042,  0.0653, -0.0015, -0.0418, -0.0287,  0.0034,
         -0.0348,  0.0751, -0.0455,  0.0469,  0.0110, -0.0456,  0.0023,  0.0260,
          0.0719, -0.0004,  0.0428,  0.0179,  0.0353, -0.0521,  0.0121, -0.0017,
         -0.0242,  0.0653, -0.0346,  0.0724,  0.0674, -0.0175, -0.0157, -0.0023,
         -0.0284, -0.0170,  0.0280, -0.0077, -0.0593,  0.0034, -0.0809, -0.0248,
          0.0469, -0.0303,  0.0257,  0.0671,  0.0255, -0.0093, -0.0107,  0.0192,
         -0.0592, -0.0333, -0.0624,  0.0663, -0.0117,  0.0219, -0.0040,  0.1142,
          0.0444,  0.0161,  0.0069,  0.0242, -0.0428,  0.0181, -0.0028, -0.0165,
          0.1042,  0.0078, -0.0425,  0.0342, -0.0119,  0.0098,  0.0273,  0.0526,
         -0.0542, -0.0325,  0.0259,  0.0079, -0.0444,  0.0347, -0.0640, -0.0617,
         -0.0284,  0.0048,  0.0067,  0.0061,  0.0154, -0.0228, -0.0726, -0.0076,
         -0.0087, -0.0400,  0.0311, -0.0227, -0.0503,  0.0144,  0.0287,  0.0407,
         -0.0301, -0.0245, -0.0335, -0.1031, -0.0706, -0.0111,  0.0283, -0.0500,
          0.0210, -0.0105,  0.0271, -0.0190,  0.0070, -0.0376, -0.0656,  0.0054,
         -0.1101, -0.0273, -0.0530,  0.0244,  0.0017,  0.0464,  0.0195,  0.0828,
         -0.0110, -0.0911, -0.0908,  0.0507,  0.0596, -0.0582, -0.0377, -0.0440,
          0.0451, -0.0589, -0.1017, -0.0821, -0.0455, -0.0409,  0.0196, -0.0343,
          0.0089, -0.0601,  0.0150, -0.0366, -0.0335,  0.0327,  0.0262,  0.0371,
         -0.0648,  0.0145,  0.0052,  0.0109, -0.0479, -0.0559, -0.0112,  0.0185,
          0.0300,  0.0108,  0.0258,  0.0560, -0.0645, -0.0572, -0.0263,  0.0118,
         -0.0068, -0.0215, -0.0223,  0.0244, -0.0024,  0.0328, -0.0523,  0.0167,
         -0.0229,  0.0294, -0.0112,  0.0335,  0.0236,  0.0030, -0.0098, -0.0292,
          0.0348, -0.0112,  0.0286, -0.0444,  0.0672, -0.0310,  0.0248,  0.0011,
          0.0166,  0.0496, -0.0482,  0.0216,  0.0483,  0.0153, -0.0508, -0.0003,
          0.0192, -0.0422, -0.0244,  0.0383,  0.0018,  0.0100, -0.0826,  0.0795,
          0.0307, -0.0749,  0.0358, -0.0459, -0.0330,  0.0290,  0.0290, -0.0448]])
