16 119
19 140
24 161
29 182
37 202
49 220
65 234
85 243
105 245
124 241
142 230
157 215
168 197
173 177
177 156
181 136
183 116
33 108
46 101
61 100
75 104
89 110
121 108
134 102
147 99
161 100
173 107
105 125
105 139
106 153
107 166
94 177
100 179
106 180
112 179
118 176
50 127
60 121
72 122
81 130
70 133
59 132
126 129
135 121
146 120
156 125
148 131
136 131
77 202
89 197
99 193
107 195
114 192
123 195
134 200
124 209
115 213
107 215
99 214
88 210
82 203
99 202
107 202
114 201
129 201
114 201
107 202
99 202
